{
  "log" : {
    "version" : "1.2",
    "pages" : [ ],
    "entries" : [ {
      "startedDateTime" : "2023-07-10T10:33:33.382Z",
      "request" : {
        "method" : "POST",
        "url" : "https://restful-booker.herokuapp.com/booking",
        "httpVersion" : "",
        "cookies" : [ ],
        "headers" : [ {
          "name" : "Content-Type",
          "value" : "application/json"
        }, {
          "name" : "Accept",
          "value" : "application/json"
        } ],
        "queryString" : [ ],
        "postData" : {
          "mimeType" : "application/json",
          "text" : "{\n    \"firstname\" : \"Jim\",\n    \"lastname\" : \"Brown\",\n    \"totalprice\" : 111,\n    \"depositpaid\" : true,\n    \"bookingdates\" : {\n        \"checkin\" : \"2018-01-01\",\n        \"checkout\" : \"2019-01-01\"\n    },\n    \"additionalneeds\" : \"Breakfast\"\n}",
          "comment" : ""
        },
        "headersSize" : 0,
        "bodySize" : 0,
        "comment" : ""
      },
      "response" : {
        "status" : 200,
        "statusText" : "",
        "httpVersion" : "",
        "cookies" : [ ],
        "headers" : [ {
          "name" : "Server",
          "value" : "Cowboy"
        }, {
          "name" : "Etag",
          "value" : "W/\"c4-eic/hJQp9ysLvZidENLv1k+NZ80\""
        }, {
          "name" : "Connection",
          "value" : "keep-alive"
        }, {
          "name" : "#status#",
          "value" : "HTTP/1.1 200 OK"
        }, {
          "name" : "Content-Length",
          "value" : "196"
        }, {
          "name" : "Date",
          "value" : "Mon, 10 Jul 2023 10:33:34 GMT"
        }, {
          "name" : "X-Powered-By",
          "value" : "Express"
        }, {
          "name" : "Content-Type",
          "value" : "application/json; charset=utf-8"
        }, {
          "name" : "Via",
          "value" : "1.1 vegur"
        } ],
        "content" : {
          "size" : 196,
          "mimeType" : "application/json; charset=utf-8",
          "text" : "{\"bookingid\":351,\"booking\":{\"firstname\":\"Jim\",\"lastname\":\"Brown\",\"totalprice\":111,\"depositpaid\":true,\"bookingdates\":{\"checkin\":\"2018-01-01\",\"checkout\":\"2019-01-01\"},\"additionalneeds\":\"Breakfast\"}}",
          "comment" : ""
        },
        "redirectURL" : "",
        "headersSize" : 194,
        "bodySize" : 196,
        "comment" : ""
      },
      "cache" : { },
      "timings" : {
        "comment" : "",
        "ssl" : -1,
        "connect" : 0,
        "wait" : 0,
        "receive" : 0,
        "dns" : -1,
        "blocked" : -1,
        "send" : 0
      },
      "comment" : "",
      "_katalonRequestInformation" : {
        "name" : "3",
        "testObjectId" : "Object Repository/resfulBooker/createBooking",
        "harId" : "5d6068bc-0f77-40c0-a176-03b376ed0dfd",
        "reportFolder" : null
      },
      "time" : 0
    } ],
    "comment" : ""
  }
}