Suite/Test/Step Name,Browser,Description,Tag,Start time,End time,Duration,Status
testSuiteAdd,,,,2023-07-10 17:32:48,2023-07-10 17:33:01,12.898s,PASSED
,,,,,,,
Test Cases/Create Booking,,,,2023-07-10 17:32:48,2023-07-10 17:32:56,7.284s,PASSED
"sendRequestAndVerify(findTestObject(""resfulBooker/createToken""))",,,,2023-07-10 17:32:49,2023-07-10 17:32:54,4.806s,PASSED
"sendRequestAndVerify(findTestObject(""resfulBooker/createBooking""))",,,,2023-07-10 17:32:54,2023-07-10 17:32:56,1.650s,PASSED
,,,,,,,
Test Cases/delete fresh booking,,,,2023-07-10 17:32:56,2023-07-10 17:33:01,5.035s,PASSED
"sendRequestAndVerify(findTestObject(""resfulBooker/createToken""))",,,,2023-07-10 17:32:56,2023-07-10 17:32:58,1.593s,PASSED
"sendRequestAndVerify(findTestObject(""resfulBooker/createBooking""))",,,,2023-07-10 17:32:58,2023-07-10 17:32:59,1.547s,PASSED
"sendRequestAndVerify(findTestObject(""resfulBooker/deleteBooking""))",,,,2023-07-10 17:32:59,2023-07-10 17:33:01,1.482s,PASSED
